<?xml version="1.0" encoding="UTF-8"?>
<svg width="108px" height="134px" viewBox="0 0 108 134" version="1.1" xmlns="http://www.w3.org/2000/svg" xmlns:xlink="http://www.w3.org/1999/xlink">
    <!-- Generator: Sketch 52.2 (67145) - http://www.bohemiancoding.com/sketch -->
    <title>Group 43</title>
    <desc>Created with Sketch.</desc>
    <g id="/company" stroke="none" stroke-width="1" fill="none" fill-rule="evenodd">
        <g id="company-page-v1" transform="translate(-406.000000, -3601.000000)">
            <g id="Group-43" transform="translate(408.000000, 3603.000000)">
                <path d="M13.3333333,130 L8,130 C3.58266667,130 0,126.435612 0,122.040816 L0,7.95918367 C0,3.56438776 3.58266667,0 8,0 L13.3333333,0 L13.3333333,130 Z" id="Fill-1" fill="#CCCCCC"></path>
                <path d="M13.3333333,130 L8,130 C3.58266667,130 0,126.435612 0,122.040816 L0,7.95918367 C0,3.56438776 3.58266667,0 8,0 L13.3333333,0 L13.3333333,130 Z" id="Stroke-3" stroke="#333333" stroke-width="2.65306122" stroke-linecap="round" stroke-linejoin="round"></path>
                <path d="M96,130 L13.3333333,130 L13.3333333,0 L96,0 C100.417333,0 104,3.56438776 104,7.95918367 L104,122.040816 C104,126.435612 100.417333,130 96,130" id="Fill-5" fill="#FFFFFF"></path>
                <path d="M96,130 L13.3333333,130 L13.3333333,0 L96,0 C100.417333,0 104,3.56438776 104,7.95918367 L104,122.040816 C104,126.435612 100.417333,130 96,130 Z" id="Stroke-7" stroke="#333333" stroke-width="2.65306122" stroke-linecap="round" stroke-linejoin="round"></path>
                <polygon id="Fill-9" fill="#E24329" points="58.6705333 61.4387959 58.6705333 61.4387959 66.0358667 39.1411429 51.3052 39.1411429"></polygon>
                <polygon id="Fill-11" fill="#FC6D26" points="58.6653333 61.4387959 51.3 39.1411429 40.9853333 39.1411429"></polygon>
                <path d="M40.9830667,39.1495 L38.7404,45.9227653 C38.5377333,46.5382755 38.7577333,47.2174592 39.2937333,47.6008265 L58.6617333,61.4471531 L40.9830667,39.1495 Z" id="Fill-13" fill="#FCA326"></path>
                <path d="M40.9857333,39.1495 L51.3070667,39.1495 L46.8644,25.7197041 C46.6377333,25.0312347 45.6470667,25.0312347 45.4110667,25.7197041 L40.9857333,39.1495 Z" id="Fill-15" fill="#E24329"></path>
                <polygon id="Fill-17" fill="#FC6D26" points="58.6705333 61.4387959 66.0358667 39.1411429 76.3585333 39.1411429"></polygon>
                <path d="M76.3502667,39.1495 L78.5929333,45.9227653 C78.7956,46.5382755 78.5756,47.2174592 78.0396,47.6008265 L58.6716,61.4391939 L76.3502667,39.1495 Z" id="Fill-19" fill="#FCA326"></path>
                <path d="M76.3554667,39.1495 L66.0341333,39.1495 L70.4688,25.7197041 C70.6954667,25.0312347 71.6861333,25.0312347 71.9221333,25.7197041 L76.3554667,39.1495 Z" id="Fill-21" fill="#E24329"></path>
                <polygon id="Stroke-23" stroke="#333333" stroke-width="2.65306122" stroke-linecap="round" stroke-linejoin="round" points="58.6705333 61.4387959 58.6705333 61.4387959 66.0358667 39.1411429 51.3052 39.1411429"></polygon>
                <polygon id="Stroke-25" stroke="#333333" stroke-width="2.65306122" stroke-linecap="round" stroke-linejoin="round" points="58.6653333 61.4387959 51.3 39.1411429 40.9853333 39.1411429"></polygon>
                <path d="M40.9830667,39.1495 L38.7404,45.9227653 C38.5377333,46.5382755 38.7577333,47.2174592 39.2937333,47.6008265 L58.6617333,61.4471531 L40.9830667,39.1495 Z" id="Stroke-27" stroke="#333333" stroke-width="2.65306122" stroke-linecap="round" stroke-linejoin="round"></path>
                <path d="M40.9857333,39.1495 L51.3070667,39.1495 L46.8644,25.7197041 C46.6377333,25.0312347 45.6470667,25.0312347 45.4110667,25.7197041 L40.9857333,39.1495 Z" id="Stroke-29" stroke="#333333" stroke-width="2.65306122" stroke-linecap="round" stroke-linejoin="round"></path>
                <polygon id="Stroke-31" stroke="#333333" stroke-width="2.65306122" stroke-linecap="round" stroke-linejoin="round" points="58.6705333 61.4387959 66.0358667 39.1411429 76.3585333 39.1411429"></polygon>
                <path d="M76.3502667,39.1495 L78.5929333,45.9227653 C78.7956,46.5382755 78.5756,47.2174592 78.0396,47.6008265 L58.6716,61.4391939 L76.3502667,39.1495 Z" id="Stroke-33" stroke="#333333" stroke-width="2.65306122" stroke-linecap="round" stroke-linejoin="round"></path>
                <path d="M76.3554667,39.1495 L66.0341333,39.1495 L70.4688,25.7197041 C70.6954667,25.0312347 71.6861333,25.0312347 71.9221333,25.7197041 L76.3554667,39.1495 Z" id="Stroke-35" stroke="#333333" stroke-width="2.65306122" stroke-linecap="round" stroke-linejoin="round"></path>
                <path d="M28,104.795918 L62.6666667,104.795918" id="Stroke-37" stroke="#CCCCCC" stroke-width="2.65306122" stroke-linecap="round" stroke-linejoin="round"></path>
                <path d="M28,83.5714286 L89.3333333,83.5714286" id="Stroke-39" stroke="#CCCCCC" stroke-width="2.65306122" stroke-linecap="round" stroke-linejoin="round"></path>
                <path d="M28,94.1836735 L89.3333333,94.1836735" id="Stroke-41" stroke="#CCCCCC" stroke-width="2.65306122" stroke-linecap="round" stroke-linejoin="round"></path>
            </g>
        </g>
    </g>
</svg>